#  crc32           size  lastModified         mimeType          name
8076ddc6           1927  02.06.2014_13:44:23  text/plain;UTF-8  .FirstSpirit/Info.txt
151db63a            177  02.06.2014_13:44:23  text/plain;UTF-8  .FirstSpirit/References.txt
303fc30f             30  02.06.2014_13:44:23  text/html;UTF-8   ChannelSource_HTML_html.html
f7270acd             21  02.06.2014_13:44:23  application/pdf;UTF-8  ChannelSource_PDF_-_FOP_pdf.pdf
f7270acd             21  02.06.2014_13:44:23  application/xml;UTF-8  ChannelSource_XML_XML.xml
64c7742d            479  02.06.2014_13:44:23  text/xml;UTF-8    StoreElement.xml
