#  crc32           size  lastModified         mimeType          name
bdcdd2e8           1835  11.11.2014_08:53:19  text/plain;UTF-8  .FirstSpirit/Info.txt
0d44df39            163  11.11.2014_08:53:19  text/plain;UTF-8  .FirstSpirit/References.txt
4911d5fc            559  11.11.2014_08:53:19  text/html;UTF-8   ChannelSource_HTML_html.html
00000000              0  11.11.2014_08:53:19  application/pdf;UTF-8  ChannelSource_PDF_-_FOP_pdf.pdf
00000000              0  11.11.2014_08:53:19  application/xml;UTF-8  ChannelSource_XML_XML.xml
fcc48341             65  11.11.2014_08:53:19  text/xml;UTF-8    GomSource.xml
d2a4590c             55  11.11.2014_08:53:19  text/xml;UTF-8    Ruleset.xml
9c95ac20            190  11.11.2014_08:53:19  text/xml;UTF-8    StoreElement.xml
10ed9a6e            127  11.11.2014_08:53:19  text/plain;UTF-8  ViewScript.txt
