#  crc32           size  lastModified         mimeType          name
8125ecb5           1953  02.06.2014_13:07:28  text/plain;UTF-8  .FirstSpirit/Info.txt
1bafa4ff            486  02.06.2014_13:07:28  text/plain;UTF-8  .FirstSpirit/References.txt
c5bae023            287  02.06.2014_13:07:28  text/xml;UTF-8    StoreElement.xml
