#  crc32           size  lastModified         mimeType          name
37d87b33           1859  02.06.2014_13:44:24  text/plain;UTF-8  .FirstSpirit/Info.txt
e87afc75            241  02.06.2014_13:44:24  text/plain;UTF-8  .FirstSpirit/References.txt
d162bf00            114  02.06.2014_13:44:24  text/xml;UTF-8    StoreElement.xml
