#  crc32           size  lastModified         mimeType          name
a529213e           1859  03.06.2014_08:03:23  text/plain;UTF-8  .FirstSpirit/Info.txt
fac6da66            152  03.06.2014_08:03:23  text/plain;UTF-8  .FirstSpirit/References.txt
9abd2c14             68  03.06.2014_08:03:23  text/xml;UTF-8    StoreElement.xml
