#  crc32           size  lastModified         mimeType          name
1417018b           1927  03.06.2014_13:00:01  text/plain;UTF-8  .FirstSpirit/Info.txt
624484fe            171  03.06.2014_13:00:01  text/plain;UTF-8  .FirstSpirit/References.txt
2f26aace            844  03.06.2014_13:00:01  text/html;UTF-8   ChannelSource_HTML_html.html
f7270acd             21  03.06.2014_13:00:01  application/pdf;UTF-8  ChannelSource_PDF_-_FOP_pdf.pdf
f7270acd             21  03.06.2014_13:00:01  application/xml;UTF-8  ChannelSource_XML_XML.xml
ba826942            543  03.06.2014_13:00:01  text/xml;UTF-8    StoreElement.xml
