#  crc32           size  lastModified         mimeType          name
21fbb4ce           1835  02.06.2014_13:44:19  text/plain;UTF-8  .FirstSpirit/Info.txt
04b60f9a            821  02.06.2014_13:44:19  text/plain;UTF-8  .FirstSpirit/References.txt
f36c0458           2142  02.06.2014_13:44:19  text/html;UTF-8   ChannelSource_HTML_html.html
29bedd61             26  02.06.2014_13:44:19  application/pdf;UTF-8  ChannelSource_PDF_-_FOP_pdf.pdf
29bedd61             26  02.06.2014_13:44:19  application/xml;UTF-8  ChannelSource_XML_XML.xml
d2829764            337  02.06.2014_13:44:19  text/xml;UTF-8    GomSource.xml
6c1ebb35         412712  02.06.2014_13:44:19  image/png         PreviewImage.png
d2a4590c             55  02.06.2014_13:44:19  text/xml;UTF-8    Ruleset.xml
00000000              0  02.06.2014_13:44:19  text/plain;UTF-8  SnippetExtract.txt
6be225f1            108  02.06.2014_13:44:19  text/plain;UTF-8  SnippetHeader.txt
9a5471b0            213  02.06.2014_13:44:19  text/plain;UTF-8  SnippetThumb.txt
123d6e4c            465  02.06.2014_13:44:19  text/xml;UTF-8    StoreElement.xml
