#  crc32           size  lastModified         mimeType          name
e9c8dde0           1927  18.09.2014_13:08:12  text/plain;UTF-8  .FirstSpirit/Info.txt
d50cd93b            182  18.09.2014_13:08:12  text/plain;UTF-8  .FirstSpirit/References.txt
dcb77927           1318  18.09.2014_13:08:12  text/html;UTF-8   ChannelSource_HTML_html.html
f7270acd             21  18.09.2014_13:08:12  application/pdf;UTF-8  ChannelSource_PDF_-_FOP_pdf.pdf
f7270acd             21  18.09.2014_13:08:12  application/xml;UTF-8  ChannelSource_XML_XML.xml
5489735e            527  18.09.2014_13:08:12  text/xml;UTF-8    StoreElement.xml
