#  crc32           size  lastModified         mimeType          name
fc235ab6           1835  17.04.2016_04:48:12  text/plain;UTF-8  .FirstSpirit/Info.txt
613d362b            490  17.04.2016_04:48:12  text/plain;UTF-8  .FirstSpirit/References.txt
29bedd61             26  17.04.2016_04:48:12  text/html;UTF-8   ChannelSource_HTML_html.html
29bedd61             26  17.04.2016_04:48:12  application/pdf;UTF-8  ChannelSource_PDF_-_FOP_pdf.pdf
29bedd61             26  17.04.2016_04:48:12  application/xml;UTF-8  ChannelSource_XML_XML.xml
3fe7a857           1996  17.04.2016_04:48:12  text/xml;UTF-8    GomSource.xml
9708bf0b           4748  17.04.2016_04:48:12  text/xml;UTF-8    Mapping.xml
d2a4590c             55  17.04.2016_04:48:12  text/xml;UTF-8    Ruleset.xml
00000000              0  17.04.2016_04:48:12  text/plain;UTF-8  SnippetExtract.txt
00000000              0  17.04.2016_04:48:12  text/plain;UTF-8  SnippetHeader.txt
00000000              0  17.04.2016_04:48:12  text/plain;UTF-8  SnippetThumb.txt
d1f71631            485  17.04.2016_04:48:12  text/xml;UTF-8    StoreElement.xml
