#  crc32           size  lastModified         mimeType          name
f6eebec1           1859  01.05.2016_09:50:13  text/plain;UTF-8  .FirstSpirit/Info.txt
eb9371b3            237  01.05.2016_09:50:13  text/plain;UTF-8  .FirstSpirit/References.txt
b722b5e7            169  01.05.2016_09:50:13  text/xml;UTF-8    StoreElement.xml
