#  crc32           size  lastModified         mimeType          name
e1716b88           1927  02.06.2014_13:44:23  text/plain;UTF-8  .FirstSpirit/Info.txt
19a27242            177  02.06.2014_13:44:23  text/plain;UTF-8  .FirstSpirit/References.txt
4a2a3e23             30  02.06.2014_13:44:23  text/html;UTF-8   ChannelSource_HTML_html.html
f7270acd             21  02.06.2014_13:44:23  application/pdf;UTF-8  ChannelSource_PDF_-_FOP_pdf.pdf
f7270acd             21  02.06.2014_13:44:23  application/xml;UTF-8  ChannelSource_XML_XML.xml
3c17cc9b            479  02.06.2014_13:44:23  text/xml;UTF-8    StoreElement.xml
