#  crc32           size  lastModified         mimeType          name
c07a1409           1927  02.06.2014_13:44:23  text/plain;UTF-8  .FirstSpirit/Info.txt
d2f5f33d            173  02.06.2014_13:44:23  text/plain;UTF-8  .FirstSpirit/References.txt
00000000              0  02.06.2014_13:44:23  text/html;UTF-8   ChannelSource_HTML_html.html
f7270acd             21  02.06.2014_13:44:23  application/pdf;UTF-8  ChannelSource_PDF_-_FOP_pdf.pdf
f7270acd             21  02.06.2014_13:44:23  application/xml;UTF-8  ChannelSource_XML_XML.xml
4c6c42a2            586  02.06.2014_13:44:23  text/xml;UTF-8    StoreElement.xml
