#  crc32           size  lastModified         mimeType          name
b801a196           1927  02.06.2014_13:44:23  text/plain;UTF-8  .FirstSpirit/Info.txt
6b707841            167  02.06.2014_13:44:23  text/plain;UTF-8  .FirstSpirit/References.txt
8dab2cf2             28  02.06.2014_13:44:23  text/html;UTF-8   ChannelSource_HTML_html.html
f7270acd             21  02.06.2014_13:44:23  application/pdf;UTF-8  ChannelSource_PDF_-_FOP_pdf.pdf
f7270acd             21  02.06.2014_13:44:23  application/xml;UTF-8  ChannelSource_XML_XML.xml
c8ce76d4            517  02.06.2014_13:44:23  text/xml;UTF-8    StoreElement.xml
