#  crc32           size  lastModified         mimeType          name
1d188e47           1835  11.11.2014_08:53:19  text/plain;UTF-8  .FirstSpirit/Info.txt
9b9d90aa            169  11.11.2014_08:53:19  text/plain;UTF-8  .FirstSpirit/References.txt
75d06244             86  11.11.2014_08:53:19  text/html;UTF-8   ChannelSource_HTML_html.html
00000000              0  11.11.2014_08:53:19  application/pdf;UTF-8  ChannelSource_PDF_-_FOP_pdf.pdf
00000000              0  11.11.2014_08:53:19  application/xml;UTF-8  ChannelSource_XML_XML.xml
fcc48341             65  11.11.2014_08:53:19  text/xml;UTF-8    GomSource.xml
d2a4590c             55  11.11.2014_08:53:19  text/xml;UTF-8    Ruleset.xml
e70523d9            218  11.11.2014_08:53:19  text/xml;UTF-8    StoreElement.xml
00000000              0  11.11.2014_08:53:19  text/plain;UTF-8  ViewScript.txt
